3 pinlevel transactions/3_chibull.vcd
$date
     Nov 27, 2025       18:54:00
$end

$version
              SystemC 3.0.1 --- Oct 22 2025 18:01:16
$end

$timescale
     1 ps
$end

$scope module chi $end

$var wire    1  /  intf_chi_irq_uc       $end
$var wire    1  0  intf_chi_irq_c       $end
$var wire    1  6  intf_chi_eventi_req       $end
$var wire    1  I"  intf_chi_evento_ack       $end
$var wire    1  I#  intf_chi_chi_b_slv_tx_sactive       $end
$var wire    1  J#  intf_chi_chi_b_slv_sysco_ack       $end
$var wire    1  M#  intf_chi_chi_b_slv_tx_link_active_req       $end
$var wire    1  N#  intf_chi_chi_b_slv_rx_link_active_ack       $end
$var wire    1  Q#  intf_chi_chi_b_slv_tx_dat_flit_pend       $end
$var wire    1  R#  intf_chi_chi_b_slv_tx_dat_flitv       $end
$var wire   201  S#  intf_chi_chi_b_slv_tx_dat_flit [200:0]  $end
$var wire    1  U#  intf_chi_chi_b_slv_tx_rsp_flit_pend       $end
$var wire    1  V#  intf_chi_chi_b_slv_tx_rsp_flitv       $end
$var wire   51  W#  intf_chi_chi_b_slv_tx_rsp_flit [50:0]  $end
$var wire    1  Y#  intf_chi_chi_b_slv_tx_snp_flit_pend       $end
$var wire    1  Z#  intf_chi_chi_b_slv_tx_snp_flitv       $end
$var wire   84  [#  intf_chi_chi_b_slv_tx_snp_flit [83:0]  $end
$var wire    1  \#  intf_chi_chi_b_slv_rx_dat_lcrdv       $end
$var wire   201  _#  intf_chi_chi_b_slv_rx_dat_flit [200:0]  $end
$var wire    1  `#  intf_chi_chi_b_slv_rx_rsp_lcrdv       $end
$var wire   51  c#  intf_chi_chi_b_slv_rx_rsp_flit [50:0]  $end
$var wire    1  d#  intf_chi_chi_b_slv_rx_req_lcrdv       $end
$var wire   117  g#  intf_chi_chi_b_slv_rx_req_flit [116:0]  $end
$var wire    1  j#  clk1_region_clk1_domain_clk1_sub_domain_clk       $end
$var wire    1  5  intf_chi_eventi_ack       $end
$var wire    1  J"  intf_chi_evento_req       $end
$var wire    1  H#  intf_chi_chi_b_slv_rx_sactive       $end
$var wire    1  K#  intf_chi_chi_b_slv_sysco_req       $end
$var wire    1  L#  intf_chi_chi_b_slv_tx_link_active_ack       $end
$var wire    1  O#  intf_chi_chi_b_slv_rx_link_active_req       $end
$var wire    1  P#  intf_chi_chi_b_slv_tx_dat_lcrdv       $end
$var wire    1  T#  intf_chi_chi_b_slv_tx_rsp_lcrdv       $end
$var wire    1  X#  intf_chi_chi_b_slv_tx_snp_lcrdv       $end
$var wire    1  ]#  intf_chi_chi_b_slv_rx_dat_flit_pend       $end
$var wire    1  ^#  intf_chi_chi_b_slv_rx_dat_flitv       $end
$var wire    1  a#  intf_chi_chi_b_slv_rx_rsp_flit_pend       $end
$var wire    1  b#  intf_chi_chi_b_slv_rx_rsp_flitv       $end
$var wire    1  e#  intf_chi_chi_b_slv_rx_req_flit_pend       $end
$var wire    1  f#  intf_chi_chi_b_slv_rx_req_flitv       $end
$upscope $end
$scope module chi2 $end
$var wire    1  +  intf_chi2_irq_uc       $end
$var wire    1  ,  intf_chi2_irq_c       $end
$var wire    1  2  intf_chi2_eventi_req       $end
$var wire    1  E"  intf_chi2_evento_ack       $end
$var wire    1  1  intf_chi2_eventi_ack       $end
$var wire    1  F"  intf_chi2_evento_req       $end
$var wire    1  K"  intf_chi2_chi_b_slv_rx_sactive       $end
$var wire    1  N"  intf_chi2_chi_b_slv_sysco_req       $end
$var wire    1  O"  intf_chi2_chi_b_slv_tx_link_active_ack       $end
$var wire    1  R"  intf_chi2_chi_b_slv_rx_link_active_req       $end
$var wire    1  S"  intf_chi2_chi_b_slv_tx_dat_lcrdv       $end
$var wire    1  W"  intf_chi2_chi_b_slv_tx_rsp_lcrdv       $end
$var wire    1  ["  intf_chi2_chi_b_slv_tx_snp_lcrdv       $end
$var wire    1  `"  intf_chi2_chi_b_slv_rx_dat_flit_pend       $end
$var wire    1  a"  intf_chi2_chi_b_slv_rx_dat_flitv       $end
$var wire    1  d"  intf_chi2_chi_b_slv_rx_rsp_flit_pend       $end
$var wire    1  e"  intf_chi2_chi_b_slv_rx_rsp_flitv       $end
$var wire    1  h"  intf_chi2_chi_b_slv_rx_req_flit_pend       $end
$var wire    1  i"  intf_chi2_chi_b_slv_rx_req_flitv       $end
$var wire    1  L"  intf_chi2_chi_b_slv_tx_sactive       $end
$var wire    1  M"  intf_chi2_chi_b_slv_sysco_ack       $end
$var wire    1  P"  intf_chi2_chi_b_slv_tx_link_active_req       $end
$var wire    1  Q"  intf_chi2_chi_b_slv_rx_link_active_ack       $end
$var wire    1  T"  intf_chi2_chi_b_slv_tx_dat_flit_pend       $end
$var wire    1  U"  intf_chi2_chi_b_slv_tx_dat_flitv       $end
$var wire   201  V"  intf_chi2_chi_b_slv_tx_dat_flit [200:0]  $end
$var wire    1  X"  intf_chi2_chi_b_slv_tx_rsp_flit_pend       $end
$var wire    1  Y"  intf_chi2_chi_b_slv_tx_rsp_flitv       $end
$var wire   51  Z"  intf_chi2_chi_b_slv_tx_rsp_flit [50:0]  $end
$var wire    1  \"  intf_chi2_chi_b_slv_tx_snp_flit_pend       $end
$var wire    1  ]"  intf_chi2_chi_b_slv_tx_snp_flitv       $end
$var wire   84  ^"  intf_chi2_chi_b_slv_tx_snp_flit [83:0]  $end
$var wire    1  _"  intf_chi2_chi_b_slv_rx_dat_lcrdv       $end
$var wire   201  b"  intf_chi2_chi_b_slv_rx_dat_flit [200:0]  $end
$var wire    1  c"  intf_chi2_chi_b_slv_rx_rsp_lcrdv       $end
$var wire   51  f"  intf_chi2_chi_b_slv_rx_rsp_flit [50:0]  $end
$var wire    1  g"  intf_chi2_chi_b_slv_rx_req_lcrdv       $end
$var wire   117  j"  intf_chi2_chi_b_slv_rx_req_flit [116:0]  $end
$var wire    1  j#  clk1_region_clk1_domain_clk1_sub_domain_clk       $end
$upscope $end
$enddefinitions  $end

$comment
All initial values are dumped below at time 0 sec = 0 timescale units.
$end

$dumpvars
0!
0"
0#
0$
0%
0&
0'
0(
0)
0*
0+
0,
0-
0.
0/
00
02
04
06
b0 8
b0 9
b0 ?
b0 @
b0 F
b0 G
b0 M
b0 N
b0 S
b0 T
1U
0W
b0 X
b0 Y
0[
b0 \
b0 ]
0^
b0 _
b0 `
b0 a
b0 b
b0 c
0e
b0 g
b0 h
b0 i
1j
b0 l
b0 m
0n
b1 o
b0 p
b0 q
b0 r
b0 s
1u
b0 v
b0 w
1x
0z
b0 {
b0 |
1~
b0 !"
b0 ""
0#"
b0 $"
b0 %"
b0 &"
b0 '"
b0 ("
0*"
b0 ,"
b0 -"
b0 ."
1/"
b0 1"
b0 2"
03"
b0 4"
b0 5"
b0 6"
b0 7"
b0 8"
0:"
0;"
b0 <"
0="
b0 >"
b0 ?"
b0 @"
b0 D"
0E"
0G"
0I"
0L"
0M"
0P"
0Q"
0T"
0U"
b0 V"
0X"
0Y"
b0 Z"
0\"
0]"
b0 ^"
0_"
b0 b"
0c"
b0 f"
0g"
b0 j"
1m"
b0 o"
1q"
b0 r"
1t"
b0 u"
b0 v"
b0 w"
0x"
b0 z"
b0 {"
0}"
b0 "#
b0 ##
0$#
b0 '#
b0 (#
b0 )#
b0 *#
b0 +#
b0 -#
b0 .#
b0 /#
b0 0#
b0 1#
02#
05#
b0 6#
b0 7#
b0 8#
0:#
b0 ;#
b0 <#
b0 =#
b0 >#
b0 ?#
b0 A#
b0 B#
b0 C#
b0 D#
b0 E#
0F#
0I#
0J#
0M#
0N#
0Q#
0R#
b0 S#
0U#
0V#
b0 W#
0Y#
0Z#
b0 [#
0\#
b0 _#
0`#
b0 c#
0d#
b0 g#
1j#
01
03
05
07
0:
0;
0<
0=
0>
0A
0B
0C
0D
0E
0H
0I
0J
0K
0L
0O
0P
0Q
0R
0V
0Z
0d
0f
0k
0t
0y
0}
0)"
0+"
00"
09"
0A"
0B"
0C"
0F"
0H"
0J"
0K"
0N"
0O"
1R"
0S"
0W"
0["
0`"
0a"
0d"
0e"
0h"
0i"
0k"
1l"
0n"
0p"
0s"
0y"
0|"
0~"
0!#
0%#
0&#
0,#
03#
04#
09#
0@#
0G#
0H#
0K#
0L#
1O#
0P#
0T#
0X#
0]#
0^#
0a#
0b#
0e#
0f#
0h#
1i#
$end

#667
0j#
#1000
0m"
#1333
b0 o
0u
0~
b1 -#
b10 .#
b101110100000000000010000000100 0#
1j#
13#
0O#
0i#
#2000
1m"
0j#
0R"
0l"
#2666
1j#
#3000
0m"
#3333
0j#
#3999
1j#
#4000
1m"
#4666
0j#
#5000
0m"
#5332
1j#
#5999
0j#
#6000
1m"
#6665
1j#
#7000
0m"
#7332
0j#
#7998
1j#
#8000
1m"
#8665
0j#
#9000
0m"
#9331
1j#
#9998
0j#
#10000
1m"
#10664
1j#
#11000
0m"
#11331
0j#
#11997
1j#
#12000
1m"
#12664
0j#
#13000
0m"
#13330
1j#
#13997
0j#
#14000
1m"
#14663
1j#
#14666
1O#
1i#
#15000
0m"
#15330
0j#
#15996
1j#
#16000
1m"
#16663
0j#
#17000
0m"
#17329
1j#
#17996
0j#
#18000
1m"
#18662
1j#
#19000
0m"
#19329
0j#
#19995
1M#
1j#
1T#
1P#
1X#
1e#
1a#
1]#
1L#
#20000
1m"
#20662
0j#
#21000
0m"
#21328
1N#
1j#
#21995
0j#
#22000
1m"
1R"
1l"
#22661
1\#
1`#
1d#
1j#
#23000
0m"
#23328
0j#
#23994
1j#
#24000
1m"
#24661
0j#
#25000
0m"
#25327
1j#
#25994
0j#
#26000
1m"
#26660
1j#
#27000
0m"
#27327
0j#
#27993
b1000000000000000000 [#
1j#
#28000
1m"
#28660
0j#
#29000
0m"
#29326
1j#
#29993
0j#
#30000
1P"
1m"
1W"
1S"
1["
1h"
1d"
1`"
1O"
#30659
1j#
0X#
0P#
0T#
#31000
0m"
#31326
0j#
#31992
1j#
#32000
1Q"
1m"
#32659
0j#
#33000
0m"
#33325
0\#
0`#
0d#
1j#
#33992
0j#
#34000
1_"
1c"
1g"
1m"
#34658
1j#
#35000
0m"
#35325
0j#
#35991
1j#
#36000
1m"
#36658
0j#
#37000
0m"
#37324
1j#
#37991
0j#
#38000
1m"
#38657
1j#
#39000
0m"
#39324
0j#
#39990
1j#
#40000
1m"
#40657
0j#
#41000
0m"
#41323
1j#
#41990
0j#
#42000
b1000000000000100000 ^"
1m"
#42656
1j#
#43000
0m"
#43323
0j#
#43989
1j#
#44000
1m"
#44656
0j#
#45000
0m"
#45322
1j#
#45989
0j#
#46000
1m"
0["
0S"
0W"
#46655
1j#
#47000
0m"
#47322
0j#
#47988
1j#
#48000
1m"
#48655
0j#
#49000
0m"
#49321
1j#
#49988
0j#
#50000
0_"
0c"
0g"
1m"
#50654
1j#
#51000
0m"
#51321
0j#
#51987
1j#
#52000
1m"
#52654
0j#
#53000
0m"
#53320
1j#
#53987
0j#
#54000
1m"
#54653
1j#
#55000
0m"
#55320
0j#
#55986
1j#
#56000
1m"
#56653
0j#
#57000
0m"
#57319
1j#
#57986
0j#
#58000
1m"
#58652
1j#
#59000
0m"
#59319
0j#
#59985
1j#
#60000
1m"
#60652
0j#
#61000
0m"
#61318
1j#
#61985
0j#
#62000
1m"
#62651
1j#
#63000
0m"
#63318
0j#
#63984
1j#
#64000
1m"
#64651
0j#
#65000
0m"
#65317
1j#
#65984
0j#
#66000
1m"
#66650
1j#
#67000
0m"
#67317
0j#
#67983
1j#
#68000
1m"
#68650
0j#
#69000
0m"
#69316
1j#
#69983
0j#
#70000
1m"
#70649
1j#
#71000
0m"
#71316
0j#
#71982
1j#
#72000
1m"
#72649
0j#
#73000
0m"
#73315
1j#
#73982
0j#
#74000
1m"
#74648
1j#
#75000
0m"
#75315
0j#
#75981
1j#
#76000
1m"
#76648
0j#
#77000
0m"
#77314
1j#
#77981
0j#
#78000
1m"
#78647
1j#
#79000
0m"
#79314
0j#
#79980
1j#
#80000
1m"
#80647
0j#
#81000
0m"
#81313
1j#
#81980
0j#
#82000
1m"
#82646
1j#
#83000
0m"
#83313
0j#
#83979
1j#
#84000
1m"
#84646
0j#
#85000
0m"
#85312
1j#
#85979
0j#
#86000
1m"
#86645
1j#
#87000
0m"
#87312
0j#
#87978
1j#
#88000
1m"
#88645
0j#
#89000
0m"
#89311
1j#
#89978
0j#
#90000
1m"
#90644
1j#
#91000
0m"
#91311
0j#
#91977
1j#
#92000
1m"
#92644
0j#
#93000
0m"
#93310
1j#
#93977
0j#
#94000
1m"
#94643
1j#
#95000
0m"
#95310
0j#
#95976
1j#
#96000
1m"
#96643
0j#
#97000
0m"
#97309
1j#
#97976
0j#
#98000
1m"
#98642
1j#
#99000
0m"
#99309
0j#
#99975
b11110000 "#
1$#
12#
1F#
1j#
1%#
1!#
#100000
1m"
#100642
0j#
#101000
0m"
#101308
1j#
0!#
0%#
03#
#101975
0j#
#102000
1m"
#102641
1j#
#103000
0m"
#103308
0j#
#103974
1j#
#104000
1m"
#104641
0j#
#105000
0m"
#105307
1j#
#105974
0j#
#106000
1m"
#106640
1j#
#107000
0m"
#107307
0j#
#107973
1j#
#108000
1m"
#108640
0j#
#109000
0m"
#109306
1j#
#109973
0j#
#110000
1m"
#110639
1j#
#111000
0m"
#111306
0j#
#111972
1j#
#112000
1m"
#112639
0j#
#113000
0m"
#113305
1j#
#113972
0j#
#114000
1m"
#114638
1j#
#115000
0m"
#115305
0j#
#115971
1j#
#116000
1m"
#116638
0j#
#117000
0m"
#117304
1j#
#117971
0j#
#118000
1m"
#118637
1j#
#119000
0m"
#119304
0j#
#119970
1j#
#120000
1m"
#120637
0j#
#121000
0m"
#121303
1j#
#121970
0j#
#122000
1m"
#122636
1j#
#123000
0m"
#123303
0j#
#123969
1j#
#124000
1m"
#124636
0j#
#125000
0m"
#125302
1j#
#125969
0j#
#126000
1m"
#126635
1j#
#127000
0m"
#127302
0j#
#127968
1j#
#128000
1m"
#128635
0j#
#129000
0m"
#129301
1j#
#129968
0j#
#130000
1m"
#130634
1j#
#131000
0m"
#131301
0j#
#131967
1j#
#132000
1m"
#132634
0j#
#133000
0m"
#133300
1j#
#133967
0j#
#134000
1m"
#134633
1j#
#135000
0m"
#135300
0j#
#135966
1j#
#136000
1m"
#136633
0j#
#137000
0m"
#137299
1j#
#137966
0j#
#138000
1m"
#138632
1j#
#139000
0m"
#139299
0j#
#139965
1j#
#140000
1m"
#140632
0j#
#141000
0m"
#141298
1j#
#141965
0j#
#142000
1m"
#142631
1j#
#143000
0m"
#143298
0j#
#143964
1j#
#144000
1m"
#144631
0j#
#145000
0m"
#145297
1j#
#145964
0j#
#146000
1m"
#146630
1j#
#147000
0m"
#147297
0j#
#147963
1j#
#148000
1m"
#148630
0j#
#149000
0m"
#149296
1j#
#149963
0j#
#150000
1m"
#150629
1j#
#151000
0m"
#151296
0j#
#151962
1j#
#152000
1m"
#152629
0j#
#153000
0m"
#153295
1j#
#153962
0j#
#154000
1m"
#154628
1j#
#155000
0m"
#155295
0j#
#155961
1j#
#156000
1m"
#156628
0j#
#157000
0m"
#157294
1j#
#157961
0j#
#158000
1m"
#158627
1j#
#159000
0m"
#159294
0j#
#159960
1j#
#160000
1m"
#160627
0j#
#161000
0m"
#161293
1j#
#161960
0j#
#162000
1m"
#162626
1j#
#163000
0m"
#163293
0j#
#163959
1j#
#164000
1m"
#164626
0j#
#165000
0m"
#165292
1j#
#165959
0j#
#166000
1m"
#166625
1j#
#167000
0m"
#167292
0j#
#167958
1j#
#168000
1m"
#168625
0j#
#169000
0m"
#169291
1j#
#169958
0j#
#170000
1m"
#170624
1j#
#171000
0m"
#171291
0j#
#171957
1j#
#172000
1m"
#172624
0j#
#173000
0m"
#173290
1j#
#173957
0j#
#174000
1m"
#174623
1j#
#175000
0m"
#175290
0j#
#175956
1j#
#176000
1m"
#176623
0j#
#177000
0m"
#177289
1j#
#177956
0j#
#178000
1m"
#178622
1j#
#179000
0m"
#179289
0j#
#179955
1j#
#180000
1m"
#180622
0j#
#181000
0m"
#181288
1j#
#181955
0j#
#182000
1m"
#182621
1j#
#183000
0m"
#183288
0j#
#183954
1j#
#184000
1m"
#184621
0j#
#185000
0m"
#185287
1j#
#185954
0j#
#186000
1m"
#186620
1j#
#187000
0m"
#187287
0j#
#187953
1j#
#188000
1m"
#188620
0j#
#189000
0m"
#189286
1j#
#189953
0j#
#190000
1m"
#190619
1j#
#191000
0m"
#191286
0j#
#191952
1j#
#192000
1m"
#192619
0j#
#193000
0m"
#193285
1}"
1j#
1|"
#193952
0j#
#194000
1m"
#194618
0}"
b1111 "#
b101110100000000000010000001000 0#
b1 1#
1j#
1%#
1!#
13#
0|"
1~"
#195000
0m"
#195285
0j#
#195951
1j#
0!#
0%#
03#
0~"
#196000
1m"
#196618
0j#
#197000
0m"
#197284
1j#
#197951
0j#
#198000
1m"
#198617
1j#
#199000
0m"
#199284
0j#
#199950
1j#
#200000
1m"
#200617
0j#
#201000
0m"
#201283
1j#
#201950
0j#
#202000
1m"
#202616
1j#
#203000
0m"
#203283
0j#
#203949
1j#
#204000
1m"
#204616
0j#
#205000
0m"
#205282
1j#
#205949
0j#
#206000
1m"
#206615
1j#
#207000
0m"
#207282
0j#
#207948
1j#
#208000
1m"
#208615
0j#
#209000
0m"
#209281
1j#
#209948
0j#
#210000
1m"
#210614
1j#
#211000
0m"
#211281
0j#
#211947
1j#
#212000
1m"
#212614
0j#
#213000
0m"
#213280
1j#
#213947
0j#
#214000
1m"
#214613
1j#
#215000
0m"
#215280
0j#
#215946
1j#
#216000
1m"
#216613
0j#
#217000
0m"
#217279
1j#
#217946
0j#
#218000
1m"
#218612
1j#
#219000
0m"
#219279
0j#
#219945
1j#
#220000
1m"
#220612
0j#
#221000
0m"
#221278
1j#
#221945
0j#
#222000
1m"
#222611
1j#
#223000
0m"
#223278
0j#
#223944
1j#
#224000
1m"
#224611
0j#
#225000
0m"
#225277
1j#
#225944
0j#
#226000
1m"
#226610
1j#
#227000
0m"
#227277
0j#
#227943
1j#
#228000
1m"
#228610
0j#
#229000
0m"
#229276
1j#
#229943
0j#
#230000
1m"
#230609
1j#
#231000
0m"
#231276
0j#
#231942
1j#
#232000
1m"
#232609
0j#
#233000
0m"
#233275
1j#
#233942
0j#
#234000
1m"
#234608
1j#
#235000
0m"
#235275
0j#
#235941
1j#
#236000
1m"
#236608
0j#
#237000
0m"
#237274
1j#
#237941
0j#
#238000
1m"
#238607
1j#
#239000
0m"
#239274
0j#
#239940
1j#
#240000
1m"
#240607
0j#
#241000
0m"
#241273
1j#
#241940
0j#
#242000
1m"
#242606
1j#
#243000
0m"
#243273
0j#
#243939
1j#
#244000
1m"
#244606
0j#
#245000
0m"
#245272
1j#
#245939
0j#
#246000
1m"
#246605
1j#
#247000
0m"
#247272
0j#
#247938
1j#
#248000
1m"
#248605
0j#
#249000
0m"
#249271
1j#
#249938
0j#
#250000
1m"
#250604
1j#
#251000
0m"
#251271
0j#
#251937
1j#
#252000
1m"
#252604
0j#
#253000
0m"
#253270
1j#
#253937
0j#
#254000
1m"
#254603
1j#
#255000
0m"
#255270
0j#
#255936
1j#
#256000
1m"
#256603
0j#
#257000
0m"
#257269
1j#
#257936
0j#
#258000
1m"
#258602
1j#
#259000
0m"
#259269
0j#
#259935
1j#
#260000
1m"
#260602
0j#
#261000
0m"
#261268
1j#
#261935
0j#
#262000
1m"
#262601
1j#
#263000
0m"
#263268
0j#
#263934
1j#
#264000
1m"
#264601
0j#
#265000
0m"
#265267
1j#
#265934
0j#
#266000
1m"
#266600
1j#
#267000
0m"
#267267
0j#
#267933
1j#
#268000
1m"
#268600
0j#
#269000
0m"
#269266
1j#
#269933
0j#
#270000
1m"
#270599
1j#
#271000
0m"
#271266
0j#
#271932
1j#
#272000
1m"
#272599
0j#
#273000
0m"
#273265
1j#
#273932
0j#
#274000
1m"
#274598
1j#
#275000
0m"
#275265
0j#
#275931
1j#
#276000
1m"
#276598
0j#
#277000
0m"
#277264
1j#
#277931
0j#
#278000
1m"
#278597
1j#
#279000
0m"
#279264
0j#
#279930
1j#
#280000
1m"
#280597
0j#
#281000
0m"
#281263
1j#
#281930
0j#
#282000
1m"
#282596
1j#
#283000
0m"
#283263
0j#
#283929
1j#
#284000
1m"
#284596
0j#
#285000
0m"
#285262
1j#
#285929
0j#
#286000
1m"
#286595
1j#
#287000
0m"
#287262
0j#
#287928
b1 {"
1}"
1j#
1|"
#288000
1m"
#288595
0j#
#289000
0m"
#289261
0}"
b10000001010000000000000001010110 ##
b101110100000000000010000000000 0#
b10 1#
1j#
1%#
1!#
13#
0|"
1~"
#289928
0j#
#290000
1m"
#290594
1j#
0!#
0%#
03#
0~"
#291000
0m"
#291261
0j#
#291927
1j#
#292000
1m"
#292594
0j#
#293000
0m"
#293260
1j#
#293927
0j#
#294000
1m"
#294593
1j#
#295000
0m"
#295260
0j#
#295926
1j#
#296000
1m"
#296593
0j#
#297000
0m"
#297259
1j#
#297926
0j#
#298000
1m"
#298592
1j#
#299000
0m"
#299259
0j#
#299925
1j#
#300000
1m"
#300592
0j#
#301000
0m"
#301258
1j#
#301925
0j#
#302000
1m"
#302591
1j#
#303000
0m"
#303258
0j#
#303924
1j#
#304000
1m"
#304591
0j#
#305000
0m"
#305257
1j#
#305924
0j#
#306000
1m"
#306590
1j#
#307000
0m"
#307257
0j#
#307923
1j#
#308000
1m"
#308590
0j#
#309000
0m"
#309256
1j#
#309923
0j#
#310000
1m"
#310589
1j#
#311000
0m"
#311256
0j#
#311922
1j#
#312000
1m"
#312589
0j#
#313000
0m"
#313255
1j#
#313922
0j#
#314000
1m"
#314588
1j#
#315000
0m"
#315255
0j#
#315921
1j#
#316000
1m"
#316588
0j#
#317000
0m"
#317254
1j#
#317921
0j#
#318000
1m"
#318587
1j#
#319000
0m"
#319254
0j#
#319920
1j#
#320000
1m"
#320587
0j#
#321000
0m"
#321253
1j#
#321920
0j#
#322000
1m"
#322586
1j#
#323000
0m"
#323253
0j#
#323919
1j#
#324000
1m"
#324586
0j#
#325000
0m"
#325252
1j#
#325919
0j#
#326000
1m"
#326585
1j#
#327000
0m"
#327252
0j#
#327918
1j#
#328000
1m"
#328585
0j#
#329000
0m"
#329251
1j#
#329918
0j#
#330000
1m"
#330584
1j#
#331000
0m"
#331251
0j#
#331917
1j#
#332000
1m"
#332584
0j#
#333000
0m"
#333250
1j#
#333917
0j#
#334000
1m"
#334583
1j#
#335000
0m"
#335250
0j#
#335916
1j#
#336000
1m"
#336583
0j#
#337000
0m"
#337249
1j#
#337916
0j#
#338000
1m"
#338582
1j#
#339000
0m"
#339249
0j#
#339915
1j#
#340000
1m"
#340582
0j#
#341000
0m"
#341248
1j#
#341915
0j#
#342000
1m"
#342581
1j#
#343000
0m"
#343248
0j#
#343914
1j#
#344000
1m"
#344581
0j#
#345000
0m"
#345247
1j#
#345914
0j#
#346000
1m"
#346580
1j#
#347000
0m"
#347247
0j#
#347913
1j#
#348000
1m"
#348580
0j#
#349000
0m"
#349246
1j#
#349913
0j#
#350000
1m"
#350579
1j#
#351000
0m"
#351246
0j#
#351912
1j#
#352000
1m"
#352579
0j#
#353000
0m"
#353245
1j#
#353912
0j#
#354000
1m"
#354578
1j#
#355000
0m"
#355245
0j#
#355911
1j#
#356000
1m"
#356578
0j#
#357000
0m"
#357244
1j#
#357911
0j#
#358000
1m"
#358577
1j#
#359000
0m"
#359244
0j#
#359910
1j#
#360000
1m"
#360577
0j#
#361000
0m"
#361243
1j#
#361910
0j#
#362000
1m"
#362576
1j#
#363000
0m"
#363243
0j#
#363909
1j#
#364000
1m"
#364576
0j#
#365000
0m"
#365242
1j#
#365909
0j#
#366000
1m"
#366575
1j#
#367000
0m"
#367242
0j#
#367908
1j#
#368000
1m"
#368575
0j#
#369000
0m"
#369241
1j#
#369908
0j#
#370000
1m"
#370574
1j#
#371000
0m"
#371241
0j#
#371907
1j#
#372000
1m"
#372574
0j#
#373000
0m"
#373240
1j#
#373907
0j#
#374000
1m"
#374573
1j#
#375000
0m"
#375240
0j#
#375906
1j#
#376000
1m"
#376573
0j#
#377000
0m"
#377239
1j#
#377906
0j#
#378000
1m"
#378572
1j#
#379000
0m"
#379239
0j#
#379905
1j#
#380000
1m"
#380572
0j#
#381000
0m"
#381238
1j#
#381905
0j#
#382000
1m"
#382571
b10 {"
1}"
1j#
1|"
#383000
0m"
#383238
0j#
#383904
0}"
b0 ##
b101110100000000000001111000000 0#
b11 1#
1j#
1%#
1!#
13#
0|"
1~"
#384000
1m"
#384571
0j#
#385000
0m"
#385237
1j#
0!#
0%#
03#
0~"
#385904
0j#
#386000
1m"
#386570
1j#
#387000
0m"
#387237
0j#
#387903
1j#
#388000
1m"
#388570
0j#
#389000
0m"
#389236
1j#
#389903
0j#
#390000
1m"
#390569
1j#
#391000
0m"
#391236
0j#
#391902
1j#
#392000
1m"
#392569
0j#
#393000
0m"
#393235
1j#
#393902
0j#
#394000
1m"
#394568
1j#
#395000
0m"
#395235
0j#
#395901
1j#
#396000
1m"
#396568
0j#
#397000
0m"
#397234
1j#
#397901
0j#
#398000
1m"
#398567
1j#
#399000
0m"
#399234
0j#
#399900
1j#
#400000
1m"
#400567
0j#
#401000
0m"
#401233
1j#
#401900
0j#
#402000
1m"
#402566
1j#
#403000
0m"
#403233
0j#
#403899
1j#
#404000
1m"
#404566
0j#
#405000
0m"
#405232
1j#
#405899
0j#
#406000
1m"
#406565
1j#
#407000
0m"
#407232
0j#
#407898
1j#
#408000
1m"
#408565
0j#
#409000
0m"
#409231
1j#
#409898
0j#
#410000
1m"
#410564
1j#
#411000
0m"
#411231
0j#
#411897
1j#
#412000
1m"
#412564
0j#
#413000
0m"
#413230
1j#
#413897
0j#
#414000
1m"
#414563
1j#
#415000
0m"
#415230
0j#
#415896
1j#
#416000
1m"
#416563
0j#
#417000
0m"
#417229
1j#
#417896
0j#
#418000
1m"
#418562
1j#
#419000
0m"
#419229
0j#
#419895
1j#
#420000
1m"
#420562
0j#
#421000
0m"
#421228
1j#
#421895
0j#
#422000
1m"
#422561
1j#
#423000
0m"
#423228
0j#
#423894
1j#
#424000
1m"
#424561
0j#
#425000
0m"
#425227
1j#
#425894
0j#
#426000
1m"
#426560
1j#
#427000
0m"
#427227
0j#
#427893
1j#
#428000
1m"
#428560
0j#
#429000
0m"
#429226
1j#
#429893
0j#
#430000
1m"
#430559
1j#
#431000
0m"
#431226
0j#
#431892
1j#
#432000
1m"
#432559
0j#
#433000
0m"
#433225
1j#
#433892
0j#
#434000
1m"
#434558
1j#
#435000
0m"
#435225
0j#
#435891
1j#
#436000
1m"
#436558
0j#
#437000
0m"
#437224
1j#
#437891
0j#
#438000
1m"
#438557
1j#
#439000
0m"
#439224
0j#
#439890
1j#
#440000
1m"
#440557
0j#
#441000
0m"
#441223
1j#
#441890
0j#
#442000
1m"
#442556
1j#
#443000
0m"
#443223
0j#
#443889
1j#
#444000
1m"
#444556
0j#
#445000
0m"
#445222
1j#
#445889
0j#
#446000
1m"
#446555
1j#
#447000
0m"
#447222
0j#
#447888
1j#
#448000
1m"
#448555
0j#
#449000
0m"
#449221
1j#
#449888
0j#
#450000
1m"
#450554
1j#
#451000
0m"
#451221
0j#
#451887
1j#
#452000
1m"
#452554
0j#
#453000
0m"
#453220
1j#
#453887
0j#
#454000
1m"
#454553
1j#
#455000
0m"
#455220
0j#
#455886
1j#
#456000
1m"
#456553
0j#
#457000
0m"
#457219
1j#
#457886
0j#
#458000
1m"
#458552
1j#
#459000
0m"
#459219
0j#
#459885
1j#
#460000
1m"
#460552
0j#
#461000
0m"
#461218
1j#
#461885
0j#
#462000
1m"
#462551
1j#
#463000
0m"
#463218
0j#
#463884
1j#
#464000
1m"
#464551
0j#
#465000
0m"
#465217
1j#
#465884
0j#
#466000
1m"
#466550
1j#
#467000
0m"
#467217
0j#
#467883
1j#
#468000
1m"
#468550
0j#
#469000
0m"
#469216
1j#
#469883
0j#
#470000
1m"
#470549
1j#
#471000
0m"
#471216
0j#
#471882
1j#
#472000
1m"
#472549
0j#
#473000
0m"
#473215
1j#
#473882
0j#
#474000
1m"
#474548
1j#
#475000
0m"
#475215
0j#
#475881
1j#
#476000
1m"
#476548
0j#
#477000
0m"
#477214
b11 {"
1}"
1j#
1|"
#477881
0j#
#478000
1m"
#478547
0}"
b11110000 "#
b101110100000000001010000000100 0#
b100 1#
1j#
1%#
1!#
13#
0|"
1~"
#479000
0m"
#479214
0j#
#479880
1j#
0!#
0%#
03#
0~"
#480000
1m"
#480547
0j#
#481000
0m"
#481213
1j#
#481880
0j#
#482000
1m"
#482546
1j#
#483000
0m"
#483213
0j#
#483879
1j#
#484000
1m"
#484546
0j#
#485000
0m"
#485212
1j#
#485879
0j#
#486000
1m"
#486545
1j#
#487000
0m"
#487212
0j#
#487878
1j#
#488000
1m"
#488545
0j#
#489000
0m"
#489211
1j#
#489878
0j#
#490000
1m"
#490544
1j#
#491000
0m"
#491211
0j#
#491877
1j#
#492000
1m"
#492544
0j#
#493000
0m"
#493210
1j#
#493877
0j#
#494000
1m"
#494543
1j#
#495000
0m"
#495210
0j#
#495876
1j#
#496000
1m"
#496543
0j#
#497000
0m"
#497209
1j#
#497876
0j#
#498000
1m"
#498542
1j#
#499000
0m"
#499209
0j#
#499875
1j#
#500000
1m"
#500542
0j#
#501000
0m"
#501208
1j#
#501875
0j#
#502000
1m"
#502541
1j#
#503000
0m"
#503208
0j#
#503874
1j#
#504000
1m"
#504541
0j#
#505000
0m"
#505207
1j#
#505874
0j#
#506000
1m"
#506540
1j#
#507000
0m"
#507207
0j#
#507873
1j#
#508000
1m"
#508540
0j#
#509000
0m"
#509206
1j#
#509873
0j#
#510000
1m"
#510539
1j#
